<svg width="157" height="26" viewBox="0 0 157 26" fill="none" xmlns="http://www.w3.org/2000/svg">
<path d="M14.11 25.51C11.662 25.51 9.486 25 7.582 23.98C5.678 22.96 4.19333 21.5207 3.128 19.662C2.06267 17.7807 1.53 15.6047 1.53 13.134C1.53 10.6633 2.06267 8.48733 3.128 6.606C4.19333 4.72467 5.678 3.274 7.582 2.254C9.486 1.234 11.662 0.723998 14.11 0.723998C17.374 0.723998 20.1053 1.55133 22.304 3.206V6.538C20.332 4.79267 17.7027 3.92 14.416 3.92C12.58 3.92 10.948 4.294 9.52 5.042C8.11467 5.79 7.01533 6.86667 6.222 8.272C5.42867 9.65467 5.032 11.2753 5.032 13.134C5.032 14.9927 5.42867 16.6247 6.222 18.03C7.038 19.4353 8.14867 20.512 9.554 21.26C10.982 22.008 12.6027 22.382 14.416 22.382C16.0933 22.382 17.5893 22.1667 18.904 21.736C20.2413 21.2827 21.4767 20.5687 22.61 19.594V22.96C20.57 24.66 17.7367 25.51 14.11 25.51ZM41.3174 25.51C38.9601 25.51 36.8294 25 34.9254 23.98C33.0214 22.9373 31.5254 21.4753 30.4374 19.594C29.3494 17.7127 28.8054 15.5593 28.8054 13.134C28.8054 10.7087 29.3494 8.55533 30.4374 6.674C31.5254 4.79267 33.0214 3.33067 34.9254 2.288C36.8294 1.24533 38.9601 0.723998 41.3174 0.723998C43.6747 0.723998 45.8054 1.24533 47.7094 2.288C49.6134 3.33067 51.1094 4.79267 52.1974 6.674C53.2854 8.55533 53.8294 10.7087 53.8294 13.134C53.8294 15.5593 53.2854 17.7127 52.1974 19.594C51.1094 21.4753 49.6134 22.9373 47.7094 23.98C45.8054 25 43.6747 25.51 41.3174 25.51ZM41.3174 22.382C42.9947 22.382 44.5134 22.008 45.8734 21.26C47.2561 20.4893 48.3441 19.4127 49.1374 18.03C49.9307 16.6247 50.3274 14.9927 50.3274 13.134C50.3274 11.298 49.9307 9.68867 49.1374 8.306C48.3667 6.90067 47.3014 5.824 45.9414 5.076C44.5814 4.30533 43.0627 3.92 41.3854 3.92C39.6854 3.92 38.1441 4.294 36.7614 5.042C35.4014 5.79 34.3134 6.86667 33.4974 8.272C32.7041 9.67733 32.3074 11.298 32.3074 13.134C32.3074 14.9927 32.7041 16.6247 33.4974 18.03C34.2907 19.4127 35.3674 20.4893 36.7274 21.26C38.1101 22.008 39.6401 22.382 41.3174 22.382ZM67.308 25.51C65.948 25.51 64.5993 25.3853 63.262 25.136C61.9473 24.9093 60.8706 24.592 60.032 24.184V21.056C62.208 22.076 64.554 22.586 67.07 22.586C70.606 22.586 72.374 21.396 72.374 19.016C72.374 18.2 72.1813 17.5427 71.796 17.044C71.4106 16.5453 70.8553 16.1147 70.13 15.752C69.4046 15.3667 68.226 14.8453 66.594 14.188C64.35 13.2813 62.7293 12.284 61.732 11.196C60.7346 10.108 60.236 8.73667 60.236 7.082C60.236 5.83533 60.576 4.736 61.256 3.784C61.936 2.80933 62.888 2.06133 64.112 1.54C65.336 0.995998 66.7413 0.723998 68.328 0.723998C69.62 0.723998 70.7873 0.825998 71.83 1.03C72.8726 1.234 73.8926 1.56267 74.89 2.016V5.008C72.918 4.124 70.9233 3.682 68.906 3.682C67.274 3.682 66.0273 3.97667 65.166 4.566C64.3046 5.15533 63.874 5.994 63.874 7.082C63.874 7.83 64.0553 8.46467 64.418 8.986C64.8033 9.48467 65.3586 9.938 66.084 10.346C66.832 10.7313 67.9313 11.2187 69.382 11.808C70.9913 12.4653 72.2606 13.0887 73.19 13.678C74.1193 14.2673 74.822 14.9927 75.298 15.854C75.7966 16.6927 76.046 17.7467 76.046 19.016C76.046 21.0787 75.3093 22.6767 73.836 23.81C72.3626 24.9433 70.1866 25.51 67.308 25.51ZM83.7705 1.234H87.2385L95.7045 19.764L104.171 1.234H107.639V25H104.273V8.102L96.5545 25H94.8545L87.1025 8.102V25H83.7705V1.234ZM116.06 1.234H119.562V25H116.06V1.234ZM139.895 25.51C137.447 25.51 135.271 25 133.367 23.98C131.463 22.96 129.978 21.5207 128.913 19.662C127.848 17.7807 127.315 15.6047 127.315 13.134C127.315 10.6633 127.848 8.48733 128.913 6.606C129.978 4.72467 131.463 3.274 133.367 2.254C135.271 1.234 137.447 0.723998 139.895 0.723998C143.159 0.723998 145.89 1.55133 148.089 3.206V6.538C146.117 4.79267 143.488 3.92 140.201 3.92C138.365 3.92 136.733 4.294 135.305 5.042C133.9 5.79 132.8 6.86667 132.007 8.272C131.214 9.65467 130.817 11.2753 130.817 13.134C130.817 14.9927 131.214 16.6247 132.007 18.03C132.823 19.4353 133.934 20.512 135.339 21.26C136.767 22.008 138.388 22.382 140.201 22.382C141.878 22.382 143.374 22.1667 144.689 21.736C146.026 21.2827 147.262 20.5687 148.395 19.594V22.96C146.355 24.66 143.522 25.51 139.895 25.51Z" fill="#3B00DD"/>
</svg>
