<svg width="24" height="24" viewBox="0 0 24 24" fill="none" xmlns="http://www.w3.org/2000/svg">
<mask id="mask0" style="mask-type:alpha" maskUnits="userSpaceOnUse" x="8" y="6" width="8" height="13">
<path d="M8.59 17.34L13.17 12.75L8.59 8.16L10 6.75L16 12.75L10 18.75L8.59 17.34Z" fill="white"/>
</mask>
<g mask="url(#mask0)">
<rect width="24" height="24" fill="white" fill-opacity="0.54"/>
</g>
</svg>
