<svg width="19" height="20" viewBox="0 0 19 20" fill="none" xmlns="http://www.w3.org/2000/svg">
<path fill-rule="evenodd" clip-rule="evenodd" d="M0 8C0 3.582 3.582 0 8 0C12.1201 0 15.5104 3.11582 15.9492 7.11914L18.4238 11L16 12.0215V17H12V20H3V17.2402C3 14.8584 2.26468 13.7966 1.52212 12.7244C0.764822 11.6309 0 10.5266 0 8ZM11 8C11 6.38912 9.73046 5.07363 8.13672 5.00195C7.90904 4.99171 7.67367 5.00753 7.43555 5.05078C6.25555 5.26578 5.28659 6.22339 5.05859 7.40039C4.75659 8.95939 5.663 10.3414 7 10.8164V12.5C7 12.776 7.224 13 7.5 13H8.5C8.776 13 9 12.776 9 12.5V10.8164C10.163 10.4034 11 9.304 11 8ZM3.5 6C3.776 6 4 6.224 4 6.5C4 6.776 3.776 7 3.5 7C3.224 7 3 6.776 3 6.5C3 6.224 3.224 6 3.5 6ZM13 6.5C13 6.224 12.776 6 12.5 6C12.224 6 12 6.224 12 6.5C12 6.776 12.224 7 12.5 7C12.776 7 13 6.776 13 6.5ZM3.5 9C3.776 9 4 9.224 4 9.5C4 9.776 3.776 10 3.5 10C3.224 10 3 9.776 3 9.5C3 9.224 3.224 9 3.5 9ZM13 9.5C13 9.224 12.776 9 12.5 9C12.224 9 12 9.224 12 9.5C12 9.776 12.224 10 12.5 10C12.776 10 13 9.776 13 9.5Z" fill="#03DAC4"/>
</svg>
